variable,data type
accountId,  String
accountType,  String
accountName,  String
partnerName,  String
companyName,  String
associateCode,  String
category,  String
mobile,  String
landlineNo,  String
email,  String
website,  String
accountManager,  String
addressLine1,  String
addressLine2,  String
city,  String
pinCode,  String
state,  String
country,  String
desciption,  String
hotAccount,  Boolean
corporateRateGiven,  Boolean
brandName,  String
contractSigned,  Boolean
bankName,  String
branch,  String
beneficiaryName,  String
accountNo,  String
accountType,  String
micr,  String
ifsc,  String
panNo,  String
createdBy,  String
createdDate,  Date
updatedBy,  String
updatedDate,  Date
